-------------------------------------------------------------------------------
Test set: hr.miningvault.minerapp.MinerAppApplicationTests
-------------------------------------------------------------------------------
Tests run: 1, Failures: 0, Errors: 0, Skipped: 0, Time elapsed: 7.855 s - in hr.miningvault.minerapp.MinerAppApplicationTests
