E:\workspace\miner-app\backend\src\main\java\hr\miningvault\minerapp\model\dto\RestDto.java
E:\workspace\miner-app\backend\src\main\java\hr\miningvault\minerapp\controller\LoginController.java
E:\workspace\miner-app\backend\src\main\java\hr\miningvault\minerapp\model\dto\BasicUserDto.java
E:\workspace\miner-app\backend\src\main\java\hr\miningvault\minerapp\model\entity\MinerAcc.java
E:\workspace\miner-app\backend\src\main\java\hr\miningvault\minerapp\components\Messages.java
E:\workspace\miner-app\backend\src\main\java\hr\miningvault\minerapp\model\entity\User.java
E:\workspace\miner-app\backend\src\main\java\hr\miningvault\minerapp\service\LoginService.java
E:\workspace\miner-app\backend\src\main\java\hr\miningvault\minerapp\MinerAppApplication.java
E:\workspace\miner-app\backend\src\main\java\hr\miningvault\minerapp\model\dto\LoginResponseDto.java
E:\workspace\miner-app\backend\src\main\java\hr\miningvault\minerapp\database\dao\LoginDao.java
E:\workspace\miner-app\backend\src\main\java\hr\miningvault\minerapp\model\enumeration\SuccessStatus.java
E:\workspace\miner-app\backend\src\main\java\hr\miningvault\minerapp\database\jpa\repository\UsersRepository.java
E:\workspace\miner-app\backend\src\main\java\hr\miningvault\minerapp\database\jpa\UsersJpaImpl.java
E:\workspace\miner-app\backend\src\main\java\hr\miningvault\minerapp\controller\HomeController.java
E:\workspace\miner-app\backend\src\main\java\hr\miningvault\minerapp\database\jpa\repository\MinerAccRepository.java
